Describing Data with Numbers
…
---

class: middle

```r
count(lapd, job_class_title)
```

```
# A tibble: 218 x 2
  job_class_title                       n
  <fct>                             <int>
1 Accountant                            6
2 Accounting Clerk                     21
3 Accounting Clerk I                    4
4 Accounting Clerk II                   1
5 Administrative Clerk                283
6 Architectural Drafting Technician     2
# ... with 212 more rows
```

---

class: middle

```r
count(lapd, job_class_title, sort = TRUE)
```

```
# A tibble: 218 x 2
  job_class_title         n
  <fct>               <int>
1 Police Officer II    4042
2 Police Officer III   2319
3 Police Sergeant I     845
4 Police Officer I      828
5 Police Detective II   657
6 Police Detective I    630
# ... with 212 more rows
```
…
